{
    "@odata.context": "https://graph.microsoft.com/beta/$metadata#users('904c8525-0927-441d-8e6c-53a25b6ac0c4')/messages/$entity",
    "@odata.etag": "W/\"CQAAABYAAABe44T1IVG5SY6YfByURTLMAACMMS8E\"",
    "id": "AAMkAGIxNTZlYmUxLTdiOWUtNGQ3ZS04Mzg1LWRhYTQ5N2ExMmRjMgBGAAAAAADKgIA_joOoSKjM36y5UrNRBwBe44T1IVG5SY6YfByURTLMAAANLPyiAABe44T1IVG5SY6YfByURTLMAACMR8lRAAA=",
    "createdDateTime": "2018-08-21T23:28:59Z",
    "lastModifiedDateTime": "2018-08-21T23:28:59Z",
    "changeKey": "CQAAABYAAABe44T1IVG5SY6YfByURTLMAACMMS8E",
    "categories": [],
    "receivedDateTime": "2018-08-21T23:28:59Z",
    "sentDateTime": "2018-08-21T23:28:56Z",
    "hasAttachments": false,
    "internetMessageId": "<f2aae494f0bc48cd9bebc84ba258720d@utas.edu.au>",
    "subject": "Minimol Sebi replied to Turn it in for assessment 1",
    "bodyPreview": "Minimol Sebi replied to Turn it in for assessment 1\r\n\r\nHi Tracy,\r\n\r\nThanks for your information,  I forgot to enter the page number and submitted again. I was worried about the second submission.\r\n\r\nView Reply\r\nQuestions > Technical Questions\r\nCNA632 Lear",
    "importance": "normal",
    "parentFolderId": "AAMkAGIxNTZlYmUxLTdiOWUtNGQ3ZS04Mzg1LWRhYTQ5N2ExMmRjMgAuAAAAAADKgIA_joOoSKjM36y5UrNRAQBe44T1IVG5SY6YfByURTLMAAANLPyiAAA=",
    "conversationId": "AAQkAGIxNTZlYmUxLTdiOWUtNGQ3ZS04Mzg1LWRhYTQ5N2ExMmRjMgAQANuUVAQ1_rhGiNMV74WcOC4=",
    "conversationIndex": "AQHUOaa825RUBDX6uEaI0xXvhZw4Lg==",
    "isDeliveryReceiptRequested": null,
    "isReadReceiptRequested": false,
    "isRead": false,
    "isDraft": false,
    "webLink": "https://outlook.office365.com/owa/?ItemID=AAMkAGIxNTZlYmUxLTdiOWUtNGQ3ZS04Mzg1LWRhYTQ5N2ExMmRjMgBGAAAAAADKgIA%2BjoOoSKjM36y5UrNRBwBe44T1IVG5SY6YfByURTLMAAANLPyiAABe44T1IVG5SY6YfByURTLMAACMR8lRAAA%3D&exvsurl=1&viewmodel=ReadMessageItem",
    "inferenceClassification": "focused",
    "unsubscribeData": [],
    "unsubscribeEnabled": false,
    "mentionsPreview": null,
    "body": {
        "contentType": "html",
        "content": "<html>\r\n<head>\r\n<meta http-equiv=\"Content-Type\" content=\"text/html; charset=utf-8\">\r\n<meta content=\"text/html; charset=utf-8\">\r\n</head>\r\n<body style=\"font-family:'Lato',sans-serif; font-size:18px\">\r\n<div style=\"width:100%; font-family:'Lato',sans-serif; font-size:18px\">\r\n<div style=\"border-bottom:1px dotted #000000; margin-bottom:15px; padding-bottom:5px\">\r\n<h1 style=\"margin:0px; padding:0px; color:#000000; font-size:0.95rem; font-weight:bold\">\r\nMinimol Sebi replied to Turn it in for assessment 1<br>\r\n<span style=\"color:#666666; font-size:0.8rem; font-weight:normal\"></span></h1>\r\n</div>\r\n<div style=\"padding:0px; margin:0px\">\r\n<div style=\"padding:0px; margin:0px\">\r\n<div style=\"padding:0px; margin:0px; margin:10px 0\">\r\n<div style=\"margin:0px; padding:0px; color:#000000\">\r\n<p>Hi Tracy,&nbsp;</p>\r\n<p>Thanks for your information,&nbsp; I forgot to enter the page number and submitted again. I was worried about the second submission.</p>\r\n</div>\r\n<a href=\"https://mylo.utas.edu.au/d2l/lms/discussions/messageLists/frame.d2l?ou=262197&amp;tId=283287&amp;fId=86597&amp;threadId=1291746&amp;postId=3669927&amp;groupFilterOption=0\" style=\"color:#00617f\">View Reply</a>\r\n</div>\r\n<div style=\"padding:0px; margin:0px\"><a href=\"https://mylo.utas.edu.au/d2l/le/262197/discussions/forums/86597/View\" style=\"color:#00617f\">Questions</a>\r\n<span style=\"margin:0px; padding:0px; color:#000000\">&gt;</span> <a href=\"https://mylo.utas.edu.au/d2l/lms/discussions/messageLists/frame.d2l?ou=262197&amp;tId=283287&amp;fId=0&amp;threadId=0&amp;postId=0&amp;groupFilterOption=0\" style=\"color:#00617f\">\r\nTechnical Questions</a> </div>\r\n</div>\r\n<div style=\"padding:0px; margin:0px; margin-top:15px\">\r\n<div style=\"padding:0px; margin:0px; border-top:1px dotted #666666; margin-top:15px; padding-top:5px\">\r\n<table cellspacing=\"0\" cellpadding=\"0\" style=\"width:100%; border-collapse:collapse; border-spacing:0px; padding:0px; margin:0px; font-family:'Lato',sans-serif; font-size:18px\">\r\n<tbody>\r\n<tr>\r\n<td nowrap=\"nowrap\" style=\"width:100%; margin:0px; padding:0px; white-space:nowrap!important; vertical-align:top; text-align:left\">\r\n<a href=\"https://mylo.utas.edu.au/d2l/p/home/262197\" style=\"color:#00617f\">CNA632 Learning and Teaching in Healthcare Settings</a>\r\n</td>\r\n<td nowrap=\"nowrap\" style=\"width:100%; margin:0px; padding:0px; white-space:nowrap!important; vertical-align:top; text-align:right\">\r\n<a href=\"https://mylo.utas.edu.au/d2l/le/262197/discussions/List\" style=\"color:#00617f\">Discussions</a>\r\n</td>\r\n</tr>\r\n</tbody>\r\n</table>\r\n</div>\r\n</div>\r\n<div style=\"padding:0px; margin:0px; margin-top:15px\">\r\n<div style=\"padding:0px; margin:0px; text-align:center\"><span style=\"margin:0px; padding:0px; color:#666666; font-size:0.8rem\">DO NOT REPLY to this email. To reply to the message above log in directly to MyLO. You are receiving this message because you subscribed\r\n to receive instant notifications via email. </span><a href=\"https://mylo.utas.edu.au/d2l/Notifications/Settings?ou=6607\" style=\"color:#00617f; font-size:0.8rem\">Change Notification Settings</a>\r\n</div>\r\n</div>\r\n</div>\r\n</div>\r\n</body>\r\n</html>\r\n"
    },
    "sender": {
        "emailAddress": {
            "name": "donotreply.mylo@utas.edu.au",
            "address": "donotreply.mylo@utas.edu.au"
        }
    },
    "from": {
        "emailAddress": {
            "name": "donotreply.mylo@utas.edu.au",
            "address": "donotreply.mylo@utas.edu.au"
        }
    },
    "toRecipients": [
        {
            "emailAddress": {
                "name": "Connor Deckers",
                "address": "connor.deckers@utas.edu.au"
            }
        }
    ],
    "ccRecipients": [],
    "bccRecipients": [],
    "replyTo": [],
    "flag": {
        "flagStatus": "notFlagged"
    }
}